Storing and Plotting Functional Data using Tibble | John R. Lewis
…
While this is satisfactory, users of ggplot2 understand some of its advantages over base graphics. When first thinking about plotting with ggplot2, I was hoping this would work:

gplot <- ggplot(tbl, aes(x = x,y = y, group = test, colour = factor_1)) + 
  geom_line()

Unfortunately, this throws an error since the functions have different lengths. A work-around is to expand the tibble to fit the so-called tidy format with each observation on each function corresponding to a single row. Originally I was using do.call() to do this. Then I happily discovered tidyr::unnest (and its inverse tidyr::nest):

# tbl2 <- do.call(rbind,apply(tbl,1, function(r) tibble(test = r$test, factor_1 = r$factor_1, x = r$x, y = r$y)))
# tbl2

(tbl2 <- unnest(tbl))

## # A tibble: 1,003 x 4
##     test factor_1         x        y
##    <int>    <chr>     <dbl>    <dbl>
##  1     1        A -1.570796 4.275455
##  2     1        A -1.537016 4.172024
##  3     1        A -1.503235 4.045749
##  4     1        A -1.469455 3.897947
##  5     1        A -1.435674 3.730154
##  6     1        A -1.401893 3.544116
##  7     1        A -1.368113 3.341771
##  8     1        A -1.334332 3.125223
##  9     1        A -1.300552 2.896725
## 10     1        A -1.266771 2.658657
## # ... with 993 more rows
…
